transcript
# do sim_build/runsim.do
# QuestaSim-64 vmap 2021.1 Lib Mapping Utility 2021.01 Jan 19 2021
# vmap -c 
# ** Warning: vmap will not overwrite local modelsim.ini.
# QuestaSim-64 vmap 2021.1 Lib Mapping Utility 2021.01 Jan 19 2021
# vmap work sim_build/work 
# Modifying modelsim.ini
# QuestaSim-64 vlog 2021.1 Compiler 2021.01 Jan 19 2021
# Start time: 07:37:48 on Aug 11,2024
# vlog -work work "+define+COCOTB_SIM" -sv -timescale 1ns/1ps -mfcu "+acc" F:/ic_design/repos/python_environment/FiFO_cocotb/fifo.v 
# -- Compiling module synchronous_fifo
# 
# Top level modules:
# 	synchronous_fifo
# End time: 07:37:48 on Aug 11,2024, Elapsed time: 0:00:00
# Errors: 0, Warnings: 0
# vsim -onfinish exit -pli "F:/Python/Lib/site-packages/cocotb/libs/cocotbvpi_modelsim.dll" sim_build/work.synchronous_fifo 
# Start time: 07:37:48 on Aug 11,2024
# ** Note: (vsim-3812) Design is being optimized...
# ** Warning: (vsim-3865) Due to PLI being present, global +acc is being enabled automatically. This will cause your simulation to run very slowly. Please use vsim -no_autoacc to disable this feature. This feature is now deprecated and will be removed from future releases.
# //  Questa Sim-64
# //  Version 2021.1 win64 Jan 19 2021
# //
# //  Copyright 1991-2021 Mentor Graphics Corporation
# //  All Rights Reserved.
# //
# //  QuestaSim and its associated documentation contain trade
# //  secrets and commercial or financial information that are the property of
# //  Mentor Graphics Corporation and are privileged, confidential,
# //  and exempt from disclosure under the Freedom of Information Act,
# //  5 U.S.C. Section 552. Furthermore, this information
# //  is prohibited from disclosure under the Trade Secrets Act,
# //  18 U.S.C. Section 1905.
# //
# Loading sv_std.std
# Loading work.synchronous_fifo(fast)
# Loading F:/Python/Lib/site-packages/cocotb/libs/cocotbvpi_modelsim.dll
#      -.--ns INFO     gpi                                ..mbed\gpi_embed.cpp:81   in set_program_name_in_venv        Did not detect Python virtual environment. Using system-wide Python interpreter
#      -.--ns INFO     gpi                                ..\gpi\GpiCommon.cpp:101  in gpi_print_registered_impl       VPI registered
#      0.00ns INFO     cocotb                             Running on ModelSim for Questa-64 version 2021.1 2021.01
# 
#      0.00ns INFO     cocotb                             Running tests with cocotb v1.9.0 from F:\Python\Lib\site-packages\cocotb
# 
#      0.00ns INFO     cocotb                             Seeding Python random module with 1723351076
# 
#      0.00ns INFO     cocotb                             Logger is set up and should print messages.
# 
#      0.00ns INFO     cocotb.regression                  Found test fifo_test.fifo_test
# 
#      0.00ns INFO     cocotb.regression                  running fifo_test (1/1)
# 
#     10.00ns INFO     cocotb                             [reset_dut: Time = 10000  rst_n = 0]
# 
#     12.00ns INFO     cocotb                             [write: Time = 12000  rst_n = 1  wr_en = 1  rd_en = 0  data_in = 10000000]
# 
#     16.00ns INFO     cocotb                             [write: Time = 16000  rst_n = 1  wr_en = 1  rd_en = 0  data_in = 01111000]
# 
#     20.00ns INFO     cocotb                             [write: Time = 20000  rst_n = 1  wr_en = 1  rd_en = 0  data_in = 01101101]
# 
#     24.00ns INFO     cocotb                             [write: Time = 24000  rst_n = 1  wr_en = 1  rd_en = 0  data_in = 01011110]
# 
#     28.00ns INFO     cocotb                             [write: Time = 28000  rst_n = 1  wr_en = 1  rd_en = 0  data_in = 00000011]
# 
#     32.00ns INFO     cocotb                             [write: Time = 32000  rst_n = 1  wr_en = 1  rd_en = 0  data_in = 00001101]
# 
#     36.00ns INFO     cocotb                             [write: Time = 36000  rst_n = 1  wr_en = 1  rd_en = 0  data_in = 01011111]
# 
#     40.00ns INFO     cocotb                             [write: Time = 40000  rst_n = 1  wr_en = 1  rd_en = 0  data_in = 00110000]
# 
#     44.00ns INFO     cocotb                             [write: Time = 44000  rst_n = 1  wr_en = 1  rd_en = 0  data_in = 00100000]
# 
#     48.00ns INFO     cocotb                             [write: Time = 48000  rst_n = 1  wr_en = 1  rd_en = 0  data_in = 00011111]
# 
#     52.00ns INFO     cocotb                             [read_dut: Time = 52000  rst_n = 1  wr_en = 0  rd_en = 1  data_out = 10000000]
# 
#     56.00ns INFO     cocotb                             [read_dut: Time = 56000  rst_n = 1  wr_en = 0  rd_en = 1  data_out = 01111000]
# 
#     60.00ns INFO     cocotb                             [read_dut: Time = 60000  rst_n = 1  wr_en = 0  rd_en = 1  data_out = 01101101]
# 
#     64.00ns INFO     cocotb                             [read_dut: Time = 64000  rst_n = 1  wr_en = 0  rd_en = 1  data_out = 01011110]
# 
#     68.00ns INFO     cocotb                             [read_dut: Time = 68000  rst_n = 1  wr_en = 0  rd_en = 1  data_out = 00000011]
# 
#     72.00ns INFO     cocotb                             [read_dut: Time = 72000  rst_n = 1  wr_en = 0  rd_en = 1  data_out = 00001101]
# 
#     76.00ns INFO     cocotb                             [read_dut: Time = 76000  rst_n = 1  wr_en = 0  rd_en = 1  data_out = 01011111]
# 
#     80.00ns INFO     cocotb                             [read_dut: Time = 80000  rst_n = 1  wr_en = 0  rd_en = 1  data_out = 00110000]
# 
#     84.00ns INFO     cocotb                             [read_dut: Time = 84000  rst_n = 1  wr_en = 0  rd_en = 1  data_out = 00110000]
# 
#     84.00ns INFO     cocotb.regression                  fifo_test passed
# 
#     84.00ns INFO     cocotb.regression                  **************************************************************************************
# 
#                                                         ** TEST                          STATUS  SIM TIME (ns)  REAL TIME (s)  RATIO (ns/s) **
# 
#                                                         **************************************************************************************
# 
#                                                         ** fifo_test.fifo_test            PASS          84.00           0.01      11591.95  **
# 
#                                                         **************************************************************************************
# 
#                                                         ** TESTS=1 PASS=1 FAIL=0 SKIP=0                 84.00           0.05       1641.92  **
# 
#                                                         **************************************************************************************
# 
#                                                         
# 
# ** Note: $finish
#    Time: 84001 ps  Iteration: 0  Instance: /synchronous_fifo
# End time: 07:37:56 on Aug 11,2024, Elapsed time: 0:00:08
# Errors: 0, Warnings: 1
